$MeshFormat
2.2 0 8
$EndMeshFormat
$Nodes
325
1 1 0 0
2 0 1 0
3 0 -1 0
4 -1 0 0
5 -3.499999999999999 0 -2.598076211353316
6 -3 1 -1.732050807568878
7 -2.5 0 -0.8660254037844388
8 -3 -1 -1.732050807568878
9 -3.500000000000002 0 2.598076211353315
10 -3.000000000000001 1 1.732050807568877
11 -2.5 0 0.8660254037844386
12 -3.000000000000001 -1 1.732050807568877
13 0.8660254030672585 0.5000000012421923 0
14 0.4999999985659171 0.8660254046124068 0
15 -0.5000000012421923 0.8660254030672585 0
16 -0.8660254046124068 0.4999999985659171 0
17 -0.8660254030672585 -0.5000000012421923 0
18 -0.4999999985659171 -0.8660254046124068 0
19 0.5000000012421923 -0.8660254030672585 0
20 0.8660254046124068 -0.4999999985659171 0
21 -3.433012701525445 0.5000000012705423 -2.482050806933607
22 -3.24999999944381 0.8660254044266709 -2.165063508497749
23 -2.749999999432078 0.8660254031286596 -1.29903810469299
24 -2.566987297729481 0.4999999986895318 -0.9820508069136432
25 -2.566987298511512 -0.5000000013985648 -0.9820508082681597
26 -2.750000000597202 -0.8660254044740286 -1.299038106711043
27 -3.250000000879291 -0.8660254027691197 -2.165063510984076
28 -3.433012702331696 -0.4999999984776066 -2.482050808330075
29 0.9191346113755401 0 -0.6918476137628684
30 0.6808979193276605 0 -1.346397543872025
31 0.2981333256815137 0 -1.928362833439813
32 -0.2085242310855269 0 -2.406369582876308
33 -0.8117607090368928 0 -2.754648323726913
34 -1.479055472645443 0 -2.954423260032208
35 -2.174434490374924 0 -2.994924474601595
36 -2.860409699820291 0 -2.873968536441406
37 -0.1206147590180979 1 -0.6840402882721148
38 -0.4679111161252787 1 -1.285575222189472
39 -1.000000004996429 1 -1.732050810453567
40 -1.652703648513167 1 -1.969615506702751
41 -2.347296357068725 1 -1.969615505718513
42 -1.233955558051846 0 -0.6427876110818724
43 -1.826351824100313 0 -0.9848077533238206
44 -0.1206147590180979 -1 -0.6840402882721148
45 -0.4679111161252787 -1 -1.285575222189472
46 -1.000000004996429 -1 -1.732050810453567
47 -1.652703648513167 -1 -1.969615506702751
48 -2.347296357068725 -1 -1.969615505718513
49 -3.433012701552261 0.5000000011776564 2.482050806980048
50 -3.249999999281171 0.8660254046144717 2.165063508216047
51 -2.749999999335272 0.8660254030168761 1.299038104525314
52 -2.566987297701884 0.4999999985939296 0.982050806865842
53 -2.566987298466073 -0.5000000012411595 0.9820508081894569
54 -2.750000000634966 -0.866025404517634 1.299038106776451
55 -3.250000000557802 -0.8660254031403456 2.165063510427236
56 -3.43301270227465 -0.4999999986752283 2.482050808231262
57 -4.058724914454036 0 -2.182120923919256
58 -4.506463436406778 0 -1.648526930916181
59 -4.819077864349728 0 -1.026060424504022
60 -4.979715074180197 0 -0.3482787342105542
61 -4.979715072269558 0 0.3482787505571088
62 -4.819077860315888 0 1.026060435586909
63 -4.50646343227195 0 1.648526937202882
64 -4.058724912140798 0 2.182120926101682
65 -3.532088887060759 1 -1.2855752183925
66 -3.879385242741187 1 -0.6840402834385182
67 -4 1 5.469742880848116e-09
68 -3.879385240395708 1 0.6840402898826701
69 -3.532088885320512 1 1.285575220466446
70 -2.939692621451599 0 -0.3420201414967001
71 -2.939692620122883 0 0.3420201451473169
72 -3.532088887060759 -1 -1.2855752183925
73 -3.879385242741187 -1 -0.6840402834385182
74 -4 -1 5.469742880848116e-09
75 -3.879385240395708 -1 0.6840402898826701
76 -3.532088885320512 -1 1.285575220466446
77 -2.860409696488073 0 2.873968537439007
78 -2.174434482317046 0 2.994924475070913
79 -1.479055461265011 0 2.954423258025531
80 -0.8117606936412001 0 2.75464831708586
81 -0.2085242175598538 0 2.406369572806819
82 0.2981333345214896 0 1.928362822904741
83 0.6808979231072803 0 1.346397536346185
84 0.9191346123082034 0 0.6918476098276531
85 -2.347296353851851 1 1.969615506285735
86 -1.652703641175179 1 1.969615505408866
87 -0.999999995230348 1 1.732050804815118
88 -0.4679111114301706 1 1.285575216594061
89 -0.1206147579359811 1 0.6840402852990239
90 -1.826351820769771 0 0.9848077527365563
91 -1.233955555613909 0 0.6427876081764532
92 -2.347296353851851 -1 1.969615506285735
93 -1.652703641175179 -1 1.969615505408866
94 -0.999999995230348 -1 1.732050804815118
95 -0.4679111114301706 -1 1.285575216594061
96 -0.1206147579359811 -1 0.6840402852990239
97 0.5292377474019073 -0.127991531033261 0
98 -0.5085944760064589 0.09622504266569354 0
99 -0.1537749554492263 -0.5223290996431513 0
100 0.1744182268446748 0.4905626112755839 0
101 0.2886751348708022 -0.4999999995219724 0
102 0.08521475796795126 -0.1553801180512986 0
103 -0.2422258549908576 -0.1764250891406227 0
104 0.261919334192546 0.1146432721093648 0
105 -0.5451034480132863 -0.3280924253287799 0
106 0.5552667850120505 0.3072066263677145 0
107 -0.0968689011333051 0.1564623694618994 0
108 -0.2995117593582813 0.5182125708393921 0
109 -2.955979637715231 0.6883080625369555 -2.552255663797056
110 0.6669114047171041 0.6965974184485527 -0.521713019351456
111 -1.899060216587355 0.835400360713215 -2.547643041497115
112 -1.229538788344349 0.535532055466645 -2.738184533929695
113 -0.4728509955322389 0.8727078121030135 -1.964476614458403
114 0.4157159092259182 0.5006105689857924 -1.541556396055654
115 -0.611580842545965 0.5476949679261518 -2.47366829129062
116 0.7145985865411832 0.4449455972676282 -1.007575471445618
117 -2.499076769158633 0.4858025996065472 -2.83040499259747
118 0.2565871715319346 0.9575963638990084 -0.3785185024092408
119 -2.816790378784172 0.9338240926962393 -2.211731485950467
120 0.2177647832536311 0.885821547511778 -1.073752205604394
121 -1.158742151280165 0.9124301899125078 -2.257584093254161
122 -1.844905496803513 0.4411425042023649 -2.893283127864901
123 -0.007214918037112383 0.4899347465147608 -2.067802697875088
124 -2.473603402828331 0.8568244924271878 -2.470624273806438
125 0.945181161049311 0.2613984151831057 -0.3442423077277847
126 -3.174467997900885 0.2613984206776079 -2.722722856060039
127 -0.02831530802571081 0.839088528825247 -1.607597424069336
128 -0.7435302190057498 0.7435302167079022 -0.4400422187740854
129 -1.390984753541772 0.5281884375731559 -0.9765288876688609
130 -2.247147150304747 0.7435302168070639 -1.308155858927052
131 -0.9308560566045416 0.8466363813365574 -1.0057091114896
132 -1.466745849890954 0.8890646603322967 -1.447092768931886
133 -2.186998877499067 0.3892854818633355 -1.062553345771399
134 -1.018895026543237 0.3250384693881659 -0.385979073261879
135 -1.826320095041682 0.6693080236673981 -1.244958593942656
136 -1.873454359720845 0.9181054925725025 -1.598663223976092
137 -0.743530216528024 -0.7435302188256792 -0.4400422188233851
138 -1.41918349623761 -0.4340679577159138 -0.9331220060904931
139 -2.296245739723612 -0.7673487182975394 -1.32608231553609
140 -0.9731805551525408 -0.8227101061151896 -0.9974694487101282
141 -1.489052832928206 -0.8624804299879563 -1.403815814629743
142 -2.012668960949341 -0.5370490291224469 -1.156379573279967
143 -1.025266525968026 -0.4421330196830801 -0.5163478243408712
144 -1.932562304036674 -0.9113507443486288 -1.586937061833883
145 -2.955979639033215 -0.6883080602623517 -2.55225566560806
146 0.6669114064774235 -0.696597416439687 -0.5217130205123324
147 -1.929962518458953 -0.8323940837885844 -2.553223747028684
148 -1.228182625525758 -0.5292244984713848 -2.741923909332184
149 -0.5035052405376341 -0.8832215132890017 -1.963733005026132
150 0.4121196311600994 -0.4977970355837919 -1.550177802132945
151 -0.5865182013504953 -0.5394005969981829 -2.465626357564755
152 0.7141747473856879 -0.4439493024489629 -1.010134683299134
153 -2.499076769223377 -0.4858025989357201 -2.830404992964648
154 0.2565871730127087 -0.9575963635068186 -0.3785185014610487
155 -2.822141772605514 -0.9310860930874107 -2.217286553224268
156 0.2301145431991811 -0.8814988895971112 -1.066908247696589
157 -1.149635033662226 -0.9046122880274819 -2.272333073182209
158 -1.831580218594514 -0.4429292550170602 -2.891656050445503
159 -0.008370646644428881 -0.485443067063363 -2.072397325532045
160 -2.446594932541034 -0.835431069832641 -2.510177056065129
161 0.9451811610546481 -0.2613984151632629 -0.3442423077284086
162 -3.174467998003774 -0.2613984197183983 -2.722722856298562
163 -0.03373473343727906 -0.8404847316495359 -1.610815704895924
164 -3.269200695427994 -0.1588260317095818 -2.19832008948304
165 -2.759121295028843 0.1687099202334545 -1.314836652097441
166 -2.933960979618082 -0.5457531761171316 -1.617667868985321
167 -3.067945402550563 0.5251349474836138 -1.849735696927173
168 -3.091506351355949 -0.6830127021774013 -1.890544457332632
169 -3.091506350949571 -0.3169872972869698 -1.890544456628765
170 -2.92075317460633 -0.09150635202045104 -1.594791279648504
171 -2.750000000199442 -0.3169873007439399 -1.299038106022103
172 -3.088578558513333 0.07195349215000761 -1.885473371375183
173 -3.249999999814825 0.3121481616425285 -2.165063509140368
174 -2.946690757118663 0.2635362594965984 -1.639716490385374
175 -2.848457458643271 0.5539010881719763 -1.469571426430917
176 -3.250000001064939 -0.4999999994923405 -2.165063511305627
177 -3.73752002904152 0.6890704654123141 2.098805236899147
178 -3.78566323362611 0.6962379263004744 -2.048878692250472
179 -4.257482238282408 0.8366890196736501 1.180863453993038
180 -4.757092735409664 0.5353726287716436 0.7001997601695387
181 -4.464861156213756 0.87270781179567 -0.340311524817027
182 -4.542884951507703 0.5006105689612402 -1.321293154369743
183 -4.836490843134028 0.5476678150343184 0.03410434771907656
184 -4.231986847928002 0.4441160373723377 -1.845229732058186
185 -4.201664233658846 0.4858026190847829 1.847415649937273
186 -3.456100227721664 0.9575963636868935 -1.765002563579952
187 -3.490739422049303 0.9428662529647619 1.794821742725281
188 -4.038779104094712 0.8858215331627797 -1.383764550990095
189 -4.375640242693276 0.9125161499550696 0.3997629603283899
190 -4.57839141006167 0.439504604816008 1.323516069179967
191 -4.787148039406896 0.4899287242779529 -0.6919722723358606
192 -3.898387276533902 0.8641957308437619 1.63153749771973
193 -3.773969027607936 0.2537256291503266 -2.378605077388388
194 -3.773969036803646 0.2537256287656536 2.378605070656082
195 -4.378057246765438 0.8390898088080945 -0.9037387278492081
196 -3.009322630787963 0.7435302168070242 -0.8681136401002335
197 -3.009322630649597 0.743530216678725 0.868113640042336
198 -3.091398821191137 0.4176884025153388 -0.004864986906974178
199 -3.377243605227981 0.8227101061178009 0.3905169974487467
200 -3.377243605889886 0.8227101084590903 -0.3905170075356151
201 -2.93650435083645 0.4389463797823295 -0.5798557084262228
202 -2.890870104922439 0.382618042840741 0.603595418584103
203 -3.009322631905538 -0.7435302187826441 -0.8681136421696144
204 -3.098515614145479 -0.4340679578870948 -0.03644084182621843
205 -3.000298105089788 -0.7673487196373219 0.9195974941205218
206 -3.377243604687884 -0.8227101065073767 -0.3905170014203312
207 -3.471213741147908 -0.8624804299036716 0.2594146803318481
208 -2.995119608942073 -0.5370490303574702 0.5891614259167502
209 -2.934537073131372 -0.4421330207891737 -0.585970034426561
210 -3.408046656875532 -0.9113507441662262 0.7350657738172433
211 -3.714215427351274 -0.6609589246278152 2.15088053907972
212 -3.773909975172273 -0.695568534687652 -2.05991912871071
213 -4.206996573463833 -0.836202940269126 1.274210069369676
214 -4.7541245231036 -0.5325751392660658 0.7188134259944617
215 -4.44889005552691 -0.8832215100056147 -0.3141359683386288
216 -4.548553173552198 -0.4977970346325771 -1.313867975849007
217 -4.841768533501661 -0.5398056835629279 0.01095662917884721
218 -4.230508470338528 -0.4440434988228759 -1.847072887731483
219 -3.709788928300933 -0.8840077578901991 1.77905621519245
220 -3.545808563097669 -0.9476687276168535 -1.728994301673969
221 -4.203875258814771 -0.4631164737835699 1.863772166647334
222 -4.047276173222573 -0.8716798896894875 -1.417440351979708
223 -4.390257840647081 -0.90484979960973 0.41332564360216
224 -4.588457494320931 -0.4429292437790247 1.299972218589211
225 -4.790618540817783 -0.4855241746583833 -0.6881913986009691
226 -3.77396903031751 -0.2537256275308508 -2.378605075897517
227 -3.770713163197469 -0.2613984117983541 2.3784805521477
228 -4.381535993029646 -0.8368584514182654 -0.9042298384009625
229 -2.932054597486085 -0.5251349473882782 1.614365918274056
230 -3.066039020390233 0.5457531763046246 1.846433746166834
231 -2.7307993046845 0.1588260318119082 1.26578152584956
232 -3.240878704982951 -0.1687099200423263 2.149264963060739
233 -2.908493648715811 0.6830127023186691 1.573557157929413
234 -2.908493649087252 0.3169872974161793 1.573557158572769
235 -3.079246825487438 0.09150635230081225 1.869310335651661
236 -3.249999999769721 0.3169873011776148 2.165063509062237
237 -2.91142144156159 -0.07195349202254495 1.57862824389234
238 -2.750000000208045 -0.3121481614948232 1.299038106037001
239 -3.053309242941757 -0.2635362593112966 1.82438512485703
240 -3.151542541373874 -0.5539010880929124 1.994530188736533
241 -2.749999999402212 0.4999999996162189 1.299038104641258
242 0.7081805236246983 0.6717062412548316 0.4217100913997892
243 -2.876207011263988 0.6958353594741105 2.573107022986486
244 0.2069965765308015 0.8362029403427118 1.274210063833132
245 0.002784687025355392 0.5400226232400717 2.015894607643305
246 -1.062287849118061 0.8727078128816458 2.304788139019095
247 -1.872830960698778 0.5006105677527226 2.862849544743379
248 -0.5478099393303761 0.5484561562227572 2.436197267729587
249 -2.480535042325485 0.4437587867072869 2.856002327861056
250 0.3332882281345775 0.9187856800437821 0.5390972359518311
251 -2.734670795810596 0.9488831912617244 2.195993926387679
252 0.7067975495603496 0.4750663712790815 0.9835440168418943
253 -2.178985703182322 0.8858215467941915 2.457516746166225
254 -0.444969898012368 0.9040893828839015 1.863834058826074
255 0.4200377115941185 0.4429292484791175 1.591683834817899
256 -1.204686690221016 0.4900911036723746 2.759342732675376
257 -3.172947898903498 0.2537256287831438 2.725604786486757
258 0.9469169362023302 0.2537256290826347 0.3469997065118435
259 -1.593484687835561 0.8390751374258704 2.511326421785779
260 -2.247147150323736 0.7435302166783631 1.308155858777831
261 -0.7435302190054258 0.7435302167082638 0.4400422187743774
262 -1.439913419496345 0.4339313629888681 0.9456335796373656
263 -1.649575843591242 0.8227101075282535 1.387986451622397
264 -0.9731805530617397 0.822710107296588 0.9974694490116454
265 -2.108057763460828 0.3473616910396089 1.056758470105363
266 -1.027607689143158 0.4421037824335364 0.5207128021052653
267 -1.975914650528129 0.9328244289910563 1.639491878495227
268 -2.247147151455601 -0.7435302187611306 1.308155860920788
269 -1.478969186760565 -0.4298968439750862 0.9655068873078181
270 -0.7034561567425133 -0.7673487191124115 0.406484822647838
271 -1.649575852567804 -0.8227101103394632 1.387986458084914
272 -1.039733429344709 -0.8624804269226277 1.144401130118719
273 -0.9920867594721696 -0.5363958995288107 0.5661487190464776
274 -2.110871677652829 -0.3453955132576388 1.055736975337674
275 -0.6593910392364353 -0.9113507444296044 0.8518712907175356
276 0.6855986801621232 -0.6877127399673099 0.467485359141239
277 -2.881549387695309 -0.6962379254745369 2.57086906723984
278 0.160257162056463 -0.8324001278028951 1.362754332106589
279 -0.01635669989950461 -0.5278279817196894 2.04547355354617
280 -1.047604712535958 -0.8832215141886859 2.277868979589596
281 -1.863566453975737 -0.4977970374841714 2.864045777308368
282 -0.5556764570983839 -0.5328731283215317 2.452500015491202
283 -2.479582776763097 -0.443115416734138 2.85648514306734
284 0.7007410132813532 -0.4858025961282855 0.9829893356119436
285 -2.800486950977056 -0.9575963636634595 2.14352106690995
286 0.3068154857783298 -0.9403123587952824 0.3945445415547867
287 -2.190993699009987 -0.8814949166314985 2.464804690722858
288 -0.4661973124469017 -0.9127785943625308 1.856906926148596
289 0.4200377135954341 -0.44292924363049 1.591683836134185
290 -1.194088745958727 -0.4842737793473051 2.759647081354338
291 0.3942708674372652 -0.8408245509156221 0.8518873558798508
292 -3.172947916328271 -0.2537256279654318 2.725604779221621
293 0.9451811629485851 -0.2613984089847945 0.3442423059374931
294 -1.587120825396324 -0.8402460113861936 2.508453472367311
295 -0.08618733874657036 -0.04638093295399953 -0.8771918219406756
296 -2.101706814848118 0.1055470190746289 -1.943256721849812
297 -0.7940171766930972 0.0002420892213906845 -1.586911850447274
298 -2.646186360260661 -0.1205836779718539 -2.292543311346674
299 0.3050504504573837 -0.1064117810563707 -0.4989846868656376
300 -1.441521737624965 -0.2719978762174233 -1.884361615165441
301 -0.06803924078557054 0.4102446549120777 -0.5204478387002753
302 -0.4590070298637474 -0.1217709226228183 -0.4925732820318009
303 -0.1737343905336636 0.2057621227983316 -1.482677856228249
304 -2.670509140251569 -0.4999999999713715 -2.009225294075739
305 -3.681080841327987 0.1242483430496425 1.263682022789161
306 -3.627163434765855 0.1055470190746281 -1.062533931703211
307 -3.997880477647066 0.003558576489163801 -0.1340565738108884
308 -3.662307566631058 -0.1205836779718538 -1.705885459319441
309 -3.765059478169338 -0.2507946053125305 0.6058152975292352
310 -3.264209164664261 0.4999999996529723 1.246176241229307
311 -3.638970878036006 -0.2610373439079922 1.715949410480317
312 -3.315796551679136 -0.3247026091032473 -1.261379068285231
313 -4.171934615600716 -0.1955420298617591 -0.7692710755763893
314 -3.311664397255755 -0.3073131749626233 1.260175821676751
315 -3.472082528085958 0.3577100792812361 -1.522014751811055
316 -0.0861873387465707 -0.04638093295399962 0.8771918214713668
317 -2.006119954413881 -0.0009021575491724443 2.004523003447273
318 -1.03875856177217 0.001333682550053394 1.752598812921812
319 -2.597849986129501 -0.1055470188469347 2.271656124370843
320 -2.356460908364111 0.315458210839608 1.647237082434695
321 0.3140700087910586 -0.2526366028062037 0.5176994323652864
322 0.276487984923913 0.3161776489060727 0.533269285811893
323 -2.431499213359837 -0.307313174962623 1.768339427530397
324 -0.6101171997584496 -0.3319020369888862 1.216737528216643
325 -0.3283422374906333 -0.3827067233126074 0.4968471907877801
$EndNodes
$Elements
1699
1 2 2 14 6 1 13 106
2 2 2 14 6 20 1 97
3 2 2 14 6 97 1 106
4 2 2 14 6 14 2 100
5 2 2 14 6 2 15 108
6 2 2 14 6 100 2 108
7 2 2 14 6 18 3 99
8 2 2 14 6 3 19 101
9 2 2 14 6 99 3 101
10 2 2 14 6 16 4 98
11 2 2 14 6 4 17 105
12 2 2 14 6 98 4 105
13 2 2 14 6 13 14 106
14 2 2 14 6 14 100 106
15 2 2 14 6 15 16 108
16 2 2 14 6 16 98 108
17 2 2 14 6 17 18 105
18 2 2 14 6 18 99 105
19 2 2 14 6 19 20 101
20 2 2 14 6 20 97 101
21 2 2 14 6 101 97 102
22 2 2 14 6 102 97 104
23 2 2 14 6 104 97 106
24 2 2 14 6 103 98 105
25 2 2 14 6 98 103 107
26 2 2 14 6 98 107 108
27 2 2 14 6 99 101 102
28 2 2 14 6 99 102 103
29 2 2 14 6 99 103 105
30 2 2 14 6 100 104 106
31 2 2 14 6 104 100 107
32 2 2 14 6 107 100 108
33 2 2 14 6 103 102 107
34 2 2 14 6 102 104 107
35 2 2 13 15 13 125 1
36 2 2 13 15 1 125 29
37 2 2 13 15 2 118 14
38 2 2 13 15 37 118 2
39 2 2 13 15 5 126 21
40 2 2 13 15 36 126 5
41 2 2 13 15 22 119 6
42 2 2 13 15 6 119 41
43 2 2 13 15 14 110 13
44 2 2 13 15 110 125 13
45 2 2 13 15 14 118 110
46 2 2 13 15 21 109 22
47 2 2 13 15 21 126 109
48 2 2 13 15 109 119 22
49 2 2 13 15 29 116 30
50 2 2 13 15 29 125 116
51 2 2 13 15 30 114 31
52 2 2 13 15 30 116 114
53 2 2 13 15 31 123 32
54 2 2 13 15 114 123 31
55 2 2 13 15 32 115 33
56 2 2 13 15 32 123 115
57 2 2 13 15 33 112 34
58 2 2 13 15 33 115 112
59 2 2 13 15 34 122 35
60 2 2 13 15 112 122 34
61 2 2 13 15 35 117 36
62 2 2 13 15 35 122 117
63 2 2 13 15 117 126 36
64 2 2 13 15 38 120 37
65 2 2 13 15 37 120 118
66 2 2 13 15 39 113 38
67 2 2 13 15 113 127 38
68 2 2 13 15 38 127 120
69 2 2 13 15 40 121 39
70 2 2 13 15 39 121 113
71 2 2 13 15 41 111 40
72 2 2 13 15 111 121 40
73 2 2 13 15 41 124 111
74 2 2 13 15 119 124 41
75 2 2 13 15 117 124 109
76 2 2 13 15 109 126 117
77 2 2 13 15 109 124 119
78 2 2 13 15 110 120 116
79 2 2 13 15 116 125 110
80 2 2 13 15 118 120 110
81 2 2 13 15 112 121 111
82 2 2 13 15 111 122 112
83 2 2 13 15 117 122 111
84 2 2 13 15 111 124 117
85 2 2 13 15 115 121 112
86 2 2 13 15 113 121 115
87 2 2 13 15 115 123 113
88 2 2 13 15 123 127 113
89 2 2 13 15 116 120 114
90 2 2 13 15 120 127 114
91 2 2 13 15 114 127 123
92 2 2 13 19 37 2 15
93 2 2 13 19 4 134 16
94 2 2 13 19 42 134 4
95 2 2 13 19 23 6 41
96 2 2 13 19 24 133 7
97 2 2 13 19 7 133 43
98 2 2 13 19 16 128 15
99 2 2 13 19 15 128 37
100 2 2 13 19 16 134 128
101 2 2 13 19 23 130 24
102 2 2 13 19 41 130 23
103 2 2 13 19 130 133 24
104 2 2 13 19 37 131 38
105 2 2 13 19 128 131 37
106 2 2 13 19 38 131 39
107 2 2 13 19 39 132 40
108 2 2 13 19 131 132 39
109 2 2 13 19 40 136 41
110 2 2 13 19 132 136 40
111 2 2 13 19 41 136 130
112 2 2 13 19 43 129 42
113 2 2 13 19 129 134 42
114 2 2 13 19 43 135 129
115 2 2 13 19 133 135 43
116 2 2 13 19 128 134 131
117 2 2 13 19 129 132 131
118 2 2 13 19 131 134 129
119 2 2 13 19 129 135 132
120 2 2 13 19 130 135 133
121 2 2 13 19 130 136 135
122 2 2 13 19 135 136 132
123 2 2 13 23 44 18 3
124 2 2 13 23 17 143 4
125 2 2 13 23 4 143 42
126 2 2 13 23 7 142 25
127 2 2 13 23 43 142 7
128 2 2 13 23 48 8 26
129 2 2 13 23 18 137 17
130 2 2 13 23 137 143 17
131 2 2 13 23 44 137 18
132 2 2 13 23 25 139 26
133 2 2 13 23 25 142 139
134 2 2 13 23 26 139 48
135 2 2 13 23 42 138 43
136 2 2 13 23 42 143 138
137 2 2 13 23 138 142 43
138 2 2 13 23 45 140 44
139 2 2 13 23 44 140 137
140 2 2 13 23 46 140 45
141 2 2 13 23 47 141 46
142 2 2 13 23 46 141 140
143 2 2 13 23 48 144 47
144 2 2 13 23 47 144 141
145 2 2 13 23 139 144 48
146 2 2 13 23 140 143 137
147 2 2 13 23 140 141 138
148 2 2 13 23 138 143 140
149 2 2 13 23 141 142 138
150 2 2 13 23 142 144 139
151 2 2 13 23 141 144 142
152 2 2 13 27 1 161 20
153 2 2 13 27 29 161 1
154 2 2 13 27 19 154 3
155 2 2 13 27 3 154 44
156 2 2 13 27 28 162 5
157 2 2 13 27 5 162 36
158 2 2 13 27 8 155 27
159 2 2 13 27 48 155 8
160 2 2 13 27 20 146 19
161 2 2 13 27 146 154 19
162 2 2 13 27 20 161 146
163 2 2 13 27 27 145 28
164 2 2 13 27 27 155 145
165 2 2 13 27 145 162 28
166 2 2 13 27 30 152 29
167 2 2 13 27 152 161 29
168 2 2 13 27 31 150 30
169 2 2 13 27 150 152 30
170 2 2 13 27 32 159 31
171 2 2 13 27 31 159 150
172 2 2 13 27 33 151 32
173 2 2 13 27 151 159 32
174 2 2 13 27 34 148 33
175 2 2 13 27 148 151 33
176 2 2 13 27 35 158 34
177 2 2 13 27 34 158 148
178 2 2 13 27 36 153 35
179 2 2 13 27 153 158 35
180 2 2 13 27 36 162 153
181 2 2 13 27 44 156 45
182 2 2 13 27 154 156 44
183 2 2 13 27 45 149 46
184 2 2 13 27 45 163 149
185 2 2 13 27 156 163 45
186 2 2 13 27 46 157 47
187 2 2 13 27 149 157 46
188 2 2 13 27 47 147 48
189 2 2 13 27 47 157 147
190 2 2 13 27 147 160 48
191 2 2 13 27 48 160 155
192 2 2 13 27 145 160 153
193 2 2 13 27 153 162 145
194 2 2 13 27 155 160 145
195 2 2 13 27 152 156 146
196 2 2 13 27 146 161 152
197 2 2 13 27 146 156 154
198 2 2 13 27 147 157 148
199 2 2 13 27 148 158 147
200 2 2 13 27 147 158 153
201 2 2 13 27 153 160 147
202 2 2 13 27 148 157 151
203 2 2 13 27 151 157 149
204 2 2 13 27 149 159 151
205 2 2 13 27 149 163 159
206 2 2 13 27 150 156 152
207 2 2 13 27 150 163 156
208 2 2 13 27 159 163 150
209 2 2 14 28 5 21 173
210 2 2 14 28 28 5 164
211 2 2 14 28 164 5 173
212 2 2 14 28 22 6 167
213 2 2 14 28 6 23 175
214 2 2 14 28 167 6 175
215 2 2 14 28 24 7 165
216 2 2 14 28 7 25 171
217 2 2 14 28 165 7 171
218 2 2 14 28 26 8 166
219 2 2 14 28 8 27 168
220 2 2 14 28 166 8 168
221 2 2 14 28 21 22 173
222 2 2 14 28 22 167 173
223 2 2 14 28 23 24 175
224 2 2 14 28 24 165 175
225 2 2 14 28 25 26 171
226 2 2 14 28 26 166 171
227 2 2 14 28 27 28 176
228 2 2 14 28 168 27 176
229 2 2 14 28 28 164 176
230 2 2 14 28 169 164 172
231 2 2 14 28 164 169 176
232 2 2 14 28 172 164 173
233 2 2 14 28 170 165 171
234 2 2 14 28 165 170 174
235 2 2 14 28 165 174 175
236 2 2 14 28 166 168 169
237 2 2 14 28 166 169 170
238 2 2 14 28 166 170 171
239 2 2 14 28 167 172 173
240 2 2 14 28 172 167 174
241 2 2 14 28 174 167 175
242 2 2 14 28 169 168 176
243 2 2 14 28 170 169 172
244 2 2 14 28 170 172 174
245 2 2 12 37 21 193 5
246 2 2 12 37 5 193 57
247 2 2 12 37 6 186 22
248 2 2 12 37 65 186 6
249 2 2 12 37 9 194 49
250 2 2 12 37 64 194 9
251 2 2 12 37 50 187 10
252 2 2 12 37 10 187 69
253 2 2 12 37 22 178 21
254 2 2 12 37 178 193 21
255 2 2 12 37 22 186 178
256 2 2 12 37 49 177 50
257 2 2 12 37 49 194 177
258 2 2 12 37 177 187 50
259 2 2 12 37 57 184 58
260 2 2 12 37 57 193 184
261 2 2 12 37 58 182 59
262 2 2 12 37 58 184 182
263 2 2 12 37 59 191 60
264 2 2 12 37 182 191 59
265 2 2 12 37 60 183 61
266 2 2 12 37 60 191 183
267 2 2 12 37 61 180 62
268 2 2 12 37 61 183 180
269 2 2 12 37 62 190 63
270 2 2 12 37 180 190 62
271 2 2 12 37 63 185 64
272 2 2 12 37 63 190 185
273 2 2 12 37 185 194 64
274 2 2 12 37 66 188 65
275 2 2 12 37 65 188 186
276 2 2 12 37 67 181 66
277 2 2 12 37 181 195 66
278 2 2 12 37 66 195 188
279 2 2 12 37 68 189 67
280 2 2 12 37 67 189 181
281 2 2 12 37 69 179 68
282 2 2 12 37 179 189 68
283 2 2 12 37 69 192 179
284 2 2 12 37 187 192 69
285 2 2 12 37 185 192 177
286 2 2 12 37 177 194 185
287 2 2 12 37 177 192 187
288 2 2 12 37 178 188 184
289 2 2 12 37 184 193 178
290 2 2 12 37 186 188 178
291 2 2 12 37 180 189 179
292 2 2 12 37 179 190 180
293 2 2 12 37 185 190 179
294 2 2 12 37 179 192 185
295 2 2 12 37 183 189 180
296 2 2 12 37 181 189 183
297 2 2 12 37 183 191 181
298 2 2 12 37 191 195 181
299 2 2 12 37 184 188 182
300 2 2 12 37 188 195 182
301 2 2 12 37 182 195 191
302 2 2 12 41 6 23 65
303 2 2 12 41 7 201 24
304 2 2 12 41 70 201 7
305 2 2 12 41 10 69 51
306 2 2 12 41 52 202 11
307 2 2 12 41 11 202 71
308 2 2 12 41 24 196 23
309 2 2 12 41 23 196 65
310 2 2 12 41 24 201 196
311 2 2 12 41 51 197 52
312 2 2 12 41 69 197 51
313 2 2 12 41 197 202 52
314 2 2 12 41 65 200 66
315 2 2 12 41 196 200 65
316 2 2 12 41 66 200 67
317 2 2 12 41 67 199 68
318 2 2 12 41 67 200 199
319 2 2 12 41 68 199 69
320 2 2 12 41 69 199 197
321 2 2 12 41 71 198 70
322 2 2 12 41 198 201 70
323 2 2 12 41 71 202 198
324 2 2 12 41 196 201 200
325 2 2 12 41 199 202 197
326 2 2 12 41 199 200 198
327 2 2 12 41 198 202 199
328 2 2 12 41 200 201 198
329 2 2 12 45 25 209 7
330 2 2 12 45 7 209 70
331 2 2 12 45 8 72 26
332 2 2 12 45 11 208 53
333 2 2 12 45 71 208 11
334 2 2 12 45 76 12 54
335 2 2 12 45 26 203 25
336 2 2 12 45 203 209 25
337 2 2 12 45 72 203 26
338 2 2 12 45 53 205 54
339 2 2 12 45 53 208 205
340 2 2 12 45 54 205 76
341 2 2 12 45 70 204 71
342 2 2 12 45 70 209 204
343 2 2 12 45 204 208 71
344 2 2 12 45 73 206 72
345 2 2 12 45 72 206 203
346 2 2 12 45 74 206 73
347 2 2 12 45 75 207 74
348 2 2 12 45 74 207 206
349 2 2 12 45 76 210 75
350 2 2 12 45 75 210 207
351 2 2 12 45 205 210 76
352 2 2 12 45 206 209 203
353 2 2 12 45 206 207 204
354 2 2 12 45 204 209 206
355 2 2 12 45 207 208 204
356 2 2 12 45 208 210 205
357 2 2 12 45 207 210 208
358 2 2 12 49 5 226 28
359 2 2 12 49 57 226 5
360 2 2 12 49 27 220 8
361 2 2 12 49 8 220 72
362 2 2 12 49 56 227 9
363 2 2 12 49 9 227 64
364 2 2 12 49 12 219 55
365 2 2 12 49 76 219 12
366 2 2 12 49 28 212 27
367 2 2 12 49 212 220 27
368 2 2 12 49 28 226 212
369 2 2 12 49 55 211 56
370 2 2 12 49 55 219 211
371 2 2 12 49 211 227 56
372 2 2 12 49 58 218 57
373 2 2 12 49 218 226 57
374 2 2 12 49 59 216 58
375 2 2 12 49 216 218 58
376 2 2 12 49 60 225 59
377 2 2 12 49 59 225 216
378 2 2 12 49 61 217 60
379 2 2 12 49 217 225 60
380 2 2 12 49 62 214 61
381 2 2 12 49 214 217 61
382 2 2 12 49 63 224 62
383 2 2 12 49 62 224 214
384 2 2 12 49 64 221 63
385 2 2 12 49 221 224 63
386 2 2 12 49 64 227 221
387 2 2 12 49 72 222 73
388 2 2 12 49 220 222 72
389 2 2 12 49 73 215 74
390 2 2 12 49 73 228 215
391 2 2 12 49 222 228 73
392 2 2 12 49 74 223 75
393 2 2 12 49 215 223 74
394 2 2 12 49 75 213 76
395 2 2 12 49 75 223 213
396 2 2 12 49 213 219 76
397 2 2 12 49 219 221 211
398 2 2 12 49 221 227 211
399 2 2 12 49 218 222 212
400 2 2 12 49 212 226 218
401 2 2 12 49 212 222 220
402 2 2 12 49 213 223 214
403 2 2 12 49 214 224 213
404 2 2 12 49 213 221 219
405 2 2 12 49 213 224 221
406 2 2 12 49 214 223 217
407 2 2 12 49 217 223 215
408 2 2 12 49 215 225 217
409 2 2 12 49 215 228 225
410 2 2 12 49 216 222 218
411 2 2 12 49 216 228 222
412 2 2 12 49 225 228 216
413 2 2 14 50 9 49 236
414 2 2 14 50 56 9 232
415 2 2 14 50 232 9 236
416 2 2 14 50 50 10 230
417 2 2 14 50 10 51 233
418 2 2 14 50 230 10 233
419 2 2 14 50 52 11 231
420 2 2 14 50 11 53 238
421 2 2 14 50 231 11 238
422 2 2 14 50 54 12 229
423 2 2 14 50 12 55 240
424 2 2 14 50 229 12 240
425 2 2 14 50 49 50 236
426 2 2 14 50 50 230 236
427 2 2 14 50 51 52 241
428 2 2 14 50 233 51 241
429 2 2 14 50 52 231 241
430 2 2 14 50 53 54 238
431 2 2 14 50 54 229 238
432 2 2 14 50 55 56 240
433 2 2 14 50 56 232 240
434 2 2 14 50 229 237 238
435 2 2 14 50 237 229 239
436 2 2 14 50 239 229 240
437 2 2 14 50 230 233 234
438 2 2 14 50 230 234 235
439 2 2 14 50 230 235 236
440 2 2 14 50 234 231 237
441 2 2 14 50 231 234 241
442 2 2 14 50 237 231 238
443 2 2 14 50 235 232 236
444 2 2 14 50 232 235 239
445 2 2 14 50 232 239 240
446 2 2 14 50 234 233 241
447 2 2 14 50 235 234 237
448 2 2 14 50 235 237 239
449 2 2 11 59 1 258 13
450 2 2 11 59 84 258 1
451 2 2 11 59 14 250 2
452 2 2 11 59 2 250 89
453 2 2 11 59 49 257 9
454 2 2 11 59 9 257 77
455 2 2 11 59 10 251 50
456 2 2 11 59 85 251 10
457 2 2 11 59 13 242 14
458 2 2 11 59 13 258 242
459 2 2 11 59 242 250 14
460 2 2 11 59 50 243 49
461 2 2 11 59 243 257 49
462 2 2 11 59 50 251 243
463 2 2 11 59 77 249 78
464 2 2 11 59 77 257 249
465 2 2 11 59 78 247 79
466 2 2 11 59 78 249 247
467 2 2 11 59 79 256 80
468 2 2 11 59 247 256 79
469 2 2 11 59 80 248 81
470 2 2 11 59 80 256 248
471 2 2 11 59 81 245 82
472 2 2 11 59 81 248 245
473 2 2 11 59 82 255 83
474 2 2 11 59 245 255 82
475 2 2 11 59 83 252 84
476 2 2 11 59 83 255 252
477 2 2 11 59 252 258 84
478 2 2 11 59 86 253 85
479 2 2 11 59 85 253 251
480 2 2 11 59 87 246 86
481 2 2 11 59 246 259 86
482 2 2 11 59 86 259 253
483 2 2 11 59 88 254 87
484 2 2 11 59 87 254 246
485 2 2 11 59 89 244 88
486 2 2 11 59 244 254 88
487 2 2 11 59 89 250 244
488 2 2 11 59 242 252 250
489 2 2 11 59 242 258 252
490 2 2 11 59 243 253 249
491 2 2 11 59 249 257 243
492 2 2 11 59 251 253 243
493 2 2 11 59 245 254 244
494 2 2 11 59 244 255 245
495 2 2 11 59 250 252 244
496 2 2 11 59 252 255 244
497 2 2 11 59 248 254 245
498 2 2 11 59 246 254 248
499 2 2 11 59 248 256 246
500 2 2 11 59 256 259 246
501 2 2 11 59 249 253 247
502 2 2 11 59 253 259 247
503 2 2 11 59 247 259 256
504 2 2 11 63 15 2 89
505 2 2 11 63 16 266 4
506 2 2 11 63 4 266 91
507 2 2 11 63 10 51 85
508 2 2 11 63 11 265 52
509 2 2 11 63 90 265 11
510 2 2 11 63 15 261 16
511 2 2 11 63 89 261 15
512 2 2 11 63 261 266 16
513 2 2 11 63 52 260 51
514 2 2 11 63 51 260 85
515 2 2 11 63 52 265 260
516 2 2 11 63 85 267 86
517 2 2 11 63 260 267 85
518 2 2 11 63 86 263 87
519 2 2 11 63 86 267 263
520 2 2 11 63 87 264 88
521 2 2 11 63 263 264 87
522 2 2 11 63 88 264 89
523 2 2 11 63 89 264 261
524 2 2 11 63 91 262 90
525 2 2 11 63 262 265 90
526 2 2 11 63 91 266 262
527 2 2 11 63 260 265 263
528 2 2 11 63 263 267 260
529 2 2 11 63 264 266 261
530 2 2 11 63 262 264 263
531 2 2 11 63 263 265 262
532 2 2 11 63 262 266 264
533 2 2 11 67 96 3 18
534 2 2 11 67 4 273 17
535 2 2 11 67 91 273 4
536 2 2 11 67 53 274 11
537 2 2 11 67 11 274 90
538 2 2 11 67 54 12 92
539 2 2 11 67 17 270 18
540 2 2 11 67 17 273 270
541 2 2 11 67 18 270 96
542 2 2 11 67 54 268 53
543 2 2 11 67 268 274 53
544 2 2 11 67 92 268 54
545 2 2 11 67 90 269 91
546 2 2 11 67 90 274 269
547 2 2 11 67 269 273 91
548 2 2 11 67 93 271 92
549 2 2 11 67 92 271 268
550 2 2 11 67 94 271 93
551 2 2 11 67 95 272 94
552 2 2 11 67 94 272 271
553 2 2 11 67 96 275 95
554 2 2 11 67 95 275 272
555 2 2 11 67 270 275 96
556 2 2 11 67 271 274 268
557 2 2 11 67 271 272 269
558 2 2 11 67 269 274 271
559 2 2 11 67 272 273 269
560 2 2 11 67 273 275 270
561 2 2 11 67 272 275 273
562 2 2 11 71 20 293 1
563 2 2 11 71 1 293 84
564 2 2 11 71 3 286 19
565 2 2 11 71 96 286 3
566 2 2 11 71 9 292 56
567 2 2 11 71 77 292 9
568 2 2 11 71 55 285 12
569 2 2 11 71 12 285 92
570 2 2 11 71 19 276 20
571 2 2 11 71 19 286 276
572 2 2 11 71 276 293 20
573 2 2 11 71 56 277 55
574 2 2 11 71 277 285 55
575 2 2 11 71 56 292 277
576 2 2 11 71 78 283 77
577 2 2 11 71 283 292 77
578 2 2 11 71 79 281 78
579 2 2 11 71 281 283 78
580 2 2 11 71 80 290 79
581 2 2 11 71 79 290 281
582 2 2 11 71 81 282 80
583 2 2 11 71 282 290 80
584 2 2 11 71 82 279 81
585 2 2 11 71 279 282 81
586 2 2 11 71 83 289 82
587 2 2 11 71 82 289 279
588 2 2 11 71 84 284 83
589 2 2 11 71 284 289 83
590 2 2 11 71 84 293 284
591 2 2 11 71 92 287 93
592 2 2 11 71 285 287 92
593 2 2 11 71 93 280 94
594 2 2 11 71 93 294 280
595 2 2 11 71 287 294 93
596 2 2 11 71 94 288 95
597 2 2 11 71 280 288 94
598 2 2 11 71 95 278 96
599 2 2 11 71 95 288 278
600 2 2 11 71 278 291 96
601 2 2 11 71 96 291 286
602 2 2 11 71 276 291 284
603 2 2 11 71 284 293 276
604 2 2 11 71 286 291 276
605 2 2 11 71 283 287 277
606 2 2 11 71 277 292 283
607 2 2 11 71 277 287 285
608 2 2 11 71 278 288 279
609 2 2 11 71 279 289 278
610 2 2 11 71 278 289 284
611 2 2 11 71 284 291 278
612 2 2 11 71 279 288 282
613 2 2 11 71 282 288 280
614 2 2 11 71 280 290 282
615 2 2 11 71 280 294 290
616 2 2 11 71 281 287 283
617 2 2 11 71 281 294 287
618 2 2 11 71 290 294 281
619 4 2 1 1 167 174 172 298
620 4 2 1 1 109 119 167 298
621 4 2 1 1 41 167 174 175
622 4 2 1 1 167 296 174 298
623 4 2 1 1 163 297 295 303
624 4 2 1 1 133 171 165 296
625 4 2 1 1 295 301 128 302
626 4 2 1 1 109 124 119 298
627 4 2 1 1 45 295 163 297
628 4 2 1 1 131 297 295 302
629 4 2 1 1 167 41 174 296
630 4 2 1 1 33 297 115 300
631 4 2 1 1 40 132 296 300
632 4 2 1 1 172 174 170 298
633 4 2 1 1 42 143 297 302
634 4 2 1 1 42 297 131 302
635 4 2 1 1 121 115 297 300
636 4 2 1 1 34 112 122 296
637 4 2 1 1 33 115 112 300
638 4 2 1 1 40 296 121 300
639 4 2 1 1 47 296 144 300
640 4 2 1 1 295 297 131 303
641 4 2 1 1 133 171 7 165
642 4 2 1 1 41 167 119 296
643 4 2 1 1 132 297 129 300
644 4 2 1 1 121 296 112 300
645 4 2 1 1 174 175 165 296
646 4 2 1 1 109 167 173 298
647 4 2 1 1 41 175 174 296
648 4 2 1 1 112 296 34 300
649 4 2 1 1 121 112 115 300
650 4 2 1 1 132 136 40 296
651 4 2 1 1 165 170 174 296
652 4 2 1 1 131 295 128 302
653 4 2 1 1 132 129 135 300
654 4 2 1 1 144 47 48 296
655 4 2 1 1 140 295 297 302
656 4 2 1 1 163 295 150 303
657 4 2 1 1 138 42 143 297
658 4 2 1 1 132 135 296 300
659 4 2 1 1 133 142 171 296
660 4 2 1 1 131 301 295 303
661 4 2 1 1 107 102 103 302
662 4 2 1 1 34 296 158 300
663 4 2 1 1 170 165 171 296
664 4 2 1 1 173 167 172 298
665 4 2 1 1 131 128 295 301
666 4 2 1 1 139 296 144 304
667 4 2 1 1 163 159 297 303
668 4 2 1 1 41 119 124 296
669 4 2 1 1 138 43 297 300
670 4 2 1 1 174 296 170 298
671 4 2 1 1 151 297 33 300
672 4 2 1 1 132 135 136 296
673 4 2 1 1 129 138 43 297
674 4 2 1 1 134 42 131 302
675 4 2 1 1 170 296 171 304
676 4 2 1 1 129 43 135 300
677 4 2 1 1 144 296 48 304
678 4 2 1 1 111 122 112 296
679 4 2 1 1 160 147 298 304
680 4 2 1 1 129 297 43 300
681 4 2 1 1 140 297 143 302
682 4 2 1 1 140 295 45 297
683 4 2 1 1 35 158 296 298
684 4 2 1 1 112 34 33 300
685 4 2 1 1 33 151 32 297
686 4 2 1 1 171 296 139 304
687 4 2 1 1 149 163 159 297
688 4 2 1 1 156 163 45 295
689 4 2 1 1 45 163 149 297
690 4 2 1 1 129 42 138 297
691 4 2 1 1 115 33 32 297
692 4 2 1 1 131 38 301 303
693 4 2 1 1 43 296 135 300
694 4 2 1 1 171 7 142 133
695 4 2 1 1 140 45 295 302
696 4 2 1 1 138 297 141 300
697 4 2 1 1 149 297 151 300
698 4 2 1 1 296 298 147 304
699 4 2 1 1 147 296 158 298
700 4 2 1 1 150 163 156 295
701 4 2 1 1 147 296 47 300
702 4 2 1 1 133 43 142 296
703 4 2 1 1 45 44 295 302
704 4 2 1 1 99 299 44 302
705 4 2 1 1 99 101 154 299
706 4 2 1 1 131 128 134 302
707 4 2 1 1 35 153 158 298
708 4 2 1 1 104 100 106 301
709 4 2 1 1 48 47 147 296
710 4 2 1 1 34 148 33 300
711 4 2 1 1 48 296 147 304
712 4 2 1 1 138 143 140 297
713 4 2 1 1 42 129 131 297
714 4 2 1 1 120 301 38 303
715 4 2 1 1 117 124 109 298
716 4 2 1 1 159 163 150 303
717 4 2 1 1 147 158 296 300
718 4 2 1 1 142 144 139 296
719 4 2 1 1 104 106 299 301
720 4 2 1 1 159 32 151 297
721 4 2 1 1 130 165 175 296
722 4 2 1 1 141 297 46 300
723 4 2 1 1 149 46 297 300
724 4 2 1 1 130 133 165 296
725 4 2 1 1 117 296 124 298
726 4 2 1 1 107 299 102 302
727 4 2 1 1 139 171 142 296
728 4 2 1 1 153 147 158 298
729 4 2 1 1 159 151 149 297
730 4 2 1 1 34 158 148 300
731 4 2 1 1 115 32 123 297
732 4 2 1 1 99 102 101 299
733 4 2 1 1 153 160 147 298
734 4 2 1 1 144 296 142 300
735 4 2 1 1 32 297 159 303
736 4 2 1 1 113 38 297 303
737 4 2 1 1 148 151 33 300
738 4 2 1 1 35 122 117 296
739 4 2 1 1 35 296 117 298
740 4 2 1 1 141 138 140 297
741 4 2 1 1 44 299 295 302
742 4 2 1 1 149 151 157 300
743 4 2 1 1 120 114 295 303
744 4 2 1 1 46 45 149 297
745 4 2 1 1 38 39 113 297
746 4 2 1 1 133 135 43 296
747 4 2 1 1 123 297 32 303
748 4 2 1 1 115 123 113 297
749 4 2 1 1 169 172 170 298
750 4 2 1 1 99 154 44 299
751 4 2 1 1 170 298 296 304
752 4 2 1 1 120 114 116 295
753 4 2 1 1 145 164 176 298
754 4 2 1 1 120 295 301 303
755 4 2 1 1 138 42 129 43
756 4 2 1 1 169 176 164 298
757 4 2 1 1 133 7 142 43
758 4 2 1 1 150 295 30 303
759 4 2 1 1 129 132 131 297
760 4 2 1 1 48 147 160 304
761 4 2 1 1 113 297 123 303
762 4 2 1 1 130 175 41 296
763 4 2 1 1 132 39 131 297
764 4 2 1 1 124 117 111 296
765 4 2 1 1 295 299 116 301
766 4 2 1 1 104 102 107 299
767 4 2 1 1 120 295 116 301
768 4 2 1 1 116 114 30 295
769 4 2 1 1 114 30 295 303
770 4 2 1 1 149 157 46 300
771 4 2 1 1 38 131 297 303
772 4 2 1 1 141 140 46 297
773 4 2 1 1 116 295 30 299
774 4 2 1 1 139 144 48 304
775 4 2 1 1 43 142 296 300
776 4 2 1 1 117 122 111 296
777 4 2 1 1 131 39 38 297
778 4 2 1 1 128 301 98 302
779 4 2 1 1 156 152 295 299
780 4 2 1 1 128 108 98 301
781 4 2 1 1 45 44 156 295
782 4 2 1 1 40 136 41 296
783 4 2 1 1 166 171 139 304
784 4 2 1 1 43 138 142 300
785 4 2 1 1 30 295 152 299
786 4 2 1 1 120 37 38 301
787 4 2 1 1 159 150 31 303
788 4 2 1 1 30 150 152 295
789 4 2 1 1 150 156 152 295
790 4 2 1 1 46 140 45 297
791 4 2 1 1 156 154 146 299
792 4 2 1 1 126 109 173 298
793 4 2 1 1 120 38 127 303
794 4 2 1 1 107 301 299 302
795 4 2 1 1 110 299 106 301
796 4 2 1 1 147 148 158 300
797 4 2 1 1 138 141 142 300
798 4 2 1 1 145 162 176 164
799 4 2 1 1 156 295 44 299
800 4 2 1 1 170 171 166 304
801 4 2 1 1 32 159 31 303
802 4 2 1 1 176 298 169 304
803 4 2 1 1 137 99 44 302
804 4 2 1 1 100 110 106 301
805 4 2 1 1 104 299 107 301
806 4 2 1 1 124 111 41 296
807 4 2 1 1 135 133 130 296
808 4 2 1 1 169 298 170 304
809 4 2 1 1 140 143 137 302
810 4 2 1 1 105 99 137 302
811 4 2 1 1 131 38 37 301
812 4 2 1 1 110 116 299 301
813 4 2 1 1 113 127 38 303
814 4 2 1 1 168 155 176 304
815 4 2 1 1 128 131 37 301
816 4 2 1 1 148 157 151 300
817 4 2 1 1 144 142 141 300
818 4 2 1 1 41 167 6 119
819 4 2 1 1 40 41 111 296
820 4 2 1 1 116 30 29 299
821 4 2 1 1 176 145 298 304
822 4 2 1 1 172 164 173 298
823 4 2 1 1 103 99 105 302
824 4 2 1 1 41 136 130 296
825 4 2 1 1 31 150 30 303
826 4 2 1 1 128 16 98 108
827 4 2 1 1 41 6 167 175
828 4 2 1 1 156 44 154 299
829 4 2 1 1 156 146 152 299
830 4 2 1 1 106 97 104 299
831 4 2 1 1 135 130 136 296
832 4 2 1 1 134 128 98 302
833 4 2 1 1 30 152 29 299
834 4 2 1 1 98 301 107 302
835 4 2 1 1 98 107 103 302
836 4 2 1 1 98 108 107 301
837 4 2 1 1 164 172 169 298
838 4 2 1 1 131 134 129 42
839 4 2 1 1 173 164 126 298
840 4 2 1 1 106 110 125 299
841 4 2 1 1 168 176 169 304
842 4 2 1 1 123 32 31 303
843 4 2 1 1 104 107 100 301
844 4 2 1 1 97 146 101 299
845 4 2 1 1 139 48 166 304
846 4 2 1 1 168 155 27 176
847 4 2 1 1 167 109 22 119
848 4 2 1 1 147 47 157 300
849 4 2 1 1 154 101 146 299
850 4 2 1 1 145 160 298 304
851 4 2 1 1 147 157 148 300
852 4 2 1 1 133 24 130 165
853 4 2 1 1 120 127 114 303
854 4 2 1 1 142 25 7 171
855 4 2 1 1 110 120 116 301
856 4 2 1 1 125 97 106 299
857 4 2 1 1 176 155 145 304
858 4 2 1 1 114 31 30 303
859 4 2 1 1 162 164 145 298
860 4 2 1 1 20 101 97 146
861 4 2 1 1 109 22 173 167
862 4 2 1 1 47 144 141 300
863 4 2 1 1 35 117 36 298
864 4 2 1 1 175 130 24 165
865 4 2 1 1 299 301 295 302
866 4 2 1 1 169 170 166 304
867 4 2 1 1 8 166 48 304
868 4 2 1 1 100 108 2 301
869 4 2 1 1 113 123 127 303
870 4 2 1 1 46 47 141 300
871 4 2 1 1 98 134 16 128
872 4 2 1 1 153 145 160 298
873 4 2 1 1 15 108 128 301
874 4 2 1 1 153 35 36 298
875 4 2 1 1 97 161 146 299
876 4 2 1 1 48 26 139 166
877 4 2 1 1 118 110 100 301
878 4 2 1 1 8 168 166 304
879 4 2 1 1 110 118 120 301
880 4 2 1 1 97 102 104 299
881 4 2 1 1 100 14 106 110
882 4 2 1 1 97 161 20 146
883 4 2 1 1 8 155 168 304
884 4 2 1 1 102 97 101 299
885 4 2 1 1 145 155 160 304
886 4 2 1 1 4 105 143 302
887 4 2 1 1 18 137 99 44
888 4 2 1 1 145 27 155 176
889 4 2 1 1 8 26 48 166
890 4 2 1 1 153 162 145 298
891 4 2 1 1 25 142 139 171
892 4 2 1 1 17 4 105 143
893 4 2 1 1 118 100 2 301
894 4 2 1 1 137 105 18 99
895 4 2 1 1 46 157 47 300
896 4 2 1 1 23 41 130 175
897 4 2 1 1 4 98 105 302
898 4 2 1 1 134 143 42 302
899 4 2 1 1 44 99 3 154
900 4 2 1 1 23 6 41 175
901 4 2 1 1 105 137 143 302
902 4 2 1 1 14 100 118 110
903 4 2 1 1 123 114 127 303
904 4 2 1 1 99 3 18 44
905 4 2 1 1 107 108 100 301
906 4 2 1 1 26 139 166 171
907 4 2 1 1 4 143 134 302
908 4 2 1 1 143 105 17 137
909 4 2 1 1 101 20 19 146
910 4 2 1 1 153 36 162 298
911 4 2 1 1 176 162 28 164
912 4 2 1 1 162 28 145 176
913 4 2 1 1 123 31 114 303
914 4 2 1 1 99 101 3 154
915 4 2 1 1 145 28 27 176
916 4 2 1 1 15 128 37 301
917 4 2 1 1 155 8 48 304
918 4 2 1 1 98 4 134 302
919 4 2 1 1 98 103 105 302
920 4 2 1 1 106 14 13 110
921 4 2 1 1 37 118 2 301
922 4 2 1 1 7 24 133 165
923 4 2 1 1 173 21 22 109
924 4 2 1 1 168 169 166 304
925 4 2 1 1 37 120 118 301
926 4 2 1 1 48 160 155 304
927 4 2 1 1 22 6 167 119
928 4 2 1 1 173 164 5 126
929 4 2 1 1 143 4 134 42
930 4 2 1 1 154 101 19 146
931 4 2 1 1 106 125 1 97
932 4 2 1 1 21 173 126 109
933 4 2 1 1 155 27 8 168
934 4 2 1 1 15 16 128 108
935 4 2 1 1 13 125 106 110
936 4 2 1 1 24 23 130 175
937 4 2 1 1 2 14 100 118
938 4 2 1 1 134 16 4 98
939 4 2 1 1 19 3 101 154
940 4 2 1 1 105 18 17 137
941 4 2 1 1 139 26 25 171
942 4 2 1 1 173 5 21 126
943 4 2 1 1 161 20 1 97
944 4 2 1 1 162 5 28 164
945 4 2 1 1 125 1 13 106
946 4 2 1 1 119 298 296 167
947 4 2 1 1 296 298 119 124
948 4 2 1 1 34 35 296 122
949 4 2 1 1 34 296 35 158
950 4 2 1 1 302 102 99 299
951 4 2 1 1 302 99 102 103
952 4 2 1 1 121 111 296 40
953 4 2 1 1 296 111 121 112
954 4 2 1 1 113 121 297 39
955 4 2 1 1 113 297 121 115
956 4 2 1 1 300 40 297 121
957 4 2 1 1 300 297 40 132
958 4 2 1 1 39 297 40 121
959 4 2 1 1 39 40 297 132
960 4 2 1 1 126 117 298 36
961 4 2 1 1 298 117 126 109
962 4 2 1 1 301 15 2 37
963 4 2 1 1 301 2 15 108
964 4 2 1 1 140 44 302 137
965 4 2 1 1 302 44 140 45
966 4 2 1 1 116 125 299 29
967 4 2 1 1 299 125 116 110
968 4 2 1 1 161 152 299 29
969 4 2 1 1 161 299 152 146
970 4 2 1 1 1 29 97 125
971 4 2 1 1 1 97 29 161
972 4 2 1 1 299 97 29 125
973 4 2 1 1 299 29 97 161
974 4 2 1 1 5 36 164 162
975 4 2 1 1 5 164 36 126
976 4 2 1 1 298 164 36 162
977 4 2 1 1 298 36 164 126
978 4 2 2 2 176 168 169 308
979 4 2 2 2 187 230 177 310
980 4 2 2 2 190 180 305 309
981 4 2 2 2 190 305 62 309
982 4 2 2 2 68 305 179 309
983 4 2 2 2 70 306 209 307
984 4 2 2 2 61 307 180 309
985 4 2 2 2 190 62 180 309
986 4 2 2 2 68 189 307 309
987 4 2 2 2 66 195 306 313
988 4 2 2 2 66 307 195 313
989 4 2 2 2 230 235 236 305
990 4 2 2 2 180 179 305 309
991 4 2 2 2 180 307 189 309
992 4 2 2 2 62 61 180 309
993 4 2 2 2 66 306 307 313
994 4 2 2 2 190 180 179 305
995 4 2 2 2 177 230 236 305
996 4 2 2 2 191 195 307 313
997 4 2 2 2 199 68 307 309
998 4 2 2 2 169 308 168 312
999 4 2 2 2 62 305 224 309
1000 4 2 2 2 230 305 177 310
1001 4 2 2 2 68 189 67 307
1002 4 2 2 2 66 181 195 307
1003 4 2 2 2 214 307 61 309
1004 4 2 2 2 214 61 62 309
1005 4 2 2 2 182 306 195 313
1006 4 2 2 2 235 236 305 311
1007 4 2 2 2 181 191 195 307
1008 4 2 2 2 201 306 165 312
1009 4 2 2 2 180 61 183 307
1010 4 2 2 2 198 204 71 307
1011 4 2 2 2 209 306 206 307
1012 4 2 2 2 230 235 305 310
1013 4 2 2 2 201 165 209 312
1014 4 2 2 2 236 177 305 311
1015 4 2 2 2 198 307 71 309
1016 4 2 2 2 170 165 174 315
1017 4 2 2 2 204 71 307 309
1018 4 2 2 2 58 308 306 313
1019 4 2 2 2 206 307 306 313
1020 4 2 2 2 217 61 214 307
1021 4 2 2 2 202 231 310 314
1022 4 2 2 2 58 216 308 313
1023 4 2 2 2 63 62 190 305
1024 4 2 2 2 166 169 168 312
1025 4 2 2 2 222 308 306 312
1026 4 2 2 2 199 68 67 307
1027 4 2 2 2 305 309 202 314
1028 4 2 2 2 63 224 62 305
1029 4 2 2 2 200 306 70 307
1030 4 2 2 2 222 306 308 313
1031 4 2 2 2 199 305 68 309
1032 4 2 2 2 230 234 235 310
1033 4 2 2 2 71 202 309 314
1034 4 2 2 2 171 209 165 312
1035 4 2 2 2 200 201 70 306
1036 4 2 2 2 199 307 198 309
1037 4 2 2 2 180 183 189 307
1038 4 2 2 2 202 310 305 314
1039 4 2 2 2 222 308 216 313
1040 4 2 2 2 202 199 305 310
1041 4 2 2 2 204 198 70 307
1042 4 2 2 2 206 306 312 313
1043 4 2 2 2 222 312 306 313
1044 4 2 2 2 200 70 198 307
1045 4 2 2 2 168 308 220 312
1046 4 2 2 2 204 307 207 309
1047 4 2 2 2 58 306 182 313
1048 4 2 2 2 202 305 199 309
1049 4 2 2 2 194 177 236 311
1050 4 2 2 2 66 306 200 307
1051 4 2 2 2 195 182 188 306
1052 4 2 2 2 234 231 237 310
1053 4 2 2 2 231 202 11 314
1054 4 2 2 2 184 306 58 308
1055 4 2 2 2 238 231 11 314
1056 4 2 2 2 214 223 307 309
1057 4 2 2 2 206 306 209 312
1058 4 2 2 2 184 306 308 315
1059 4 2 2 2 73 312 222 313
1060 4 2 2 2 199 198 71 309
1061 4 2 2 2 58 216 218 308
1062 4 2 2 2 215 307 74 313
1063 4 2 2 2 166 168 220 312
1064 4 2 2 2 201 7 209 165
1065 4 2 2 2 217 214 223 307
1066 4 2 2 2 214 62 224 309
1067 4 2 2 2 185 305 177 311
1068 4 2 2 2 74 307 73 313
1069 4 2 2 2 184 182 58 306
1070 4 2 2 2 217 60 61 307
1071 4 2 2 2 68 305 199 310
1072 4 2 2 2 66 195 188 306
1073 4 2 2 2 182 195 191 313
1074 4 2 2 2 183 61 60 307
1075 4 2 2 2 201 200 70 198
1076 4 2 2 2 165 306 196 315
1077 4 2 2 2 207 307 74 309
1078 4 2 2 2 222 218 216 308
1079 4 2 2 2 217 307 215 313
1080 4 2 2 2 191 307 60 313
1081 4 2 2 2 206 312 73 313
1082 4 2 2 2 175 165 196 315
1083 4 2 2 2 71 202 199 309
1084 4 2 2 2 66 67 181 307
1085 4 2 2 2 191 183 60 307
1086 4 2 2 2 213 224 305 309
1087 4 2 2 2 171 209 7 165
1088 4 2 2 2 184 188 306 315
1089 4 2 2 2 215 74 73 313
1090 4 2 2 2 225 217 215 313
1091 4 2 2 2 201 196 165 306
1092 4 2 2 2 170 312 165 315
1093 4 2 2 2 170 172 169 308
1094 4 2 2 2 188 182 184 306
1095 4 2 2 2 210 309 76 314
1096 4 2 2 2 174 165 175 315
1097 4 2 2 2 305 311 213 314
1098 4 2 2 2 213 309 305 314
1099 4 2 2 2 177 185 192 305
1100 4 2 2 2 213 305 224 311
1101 4 2 2 2 169 164 176 308
1102 4 2 2 2 181 189 183 307
1103 4 2 2 2 235 305 237 314
1104 4 2 2 2 181 183 191 307
1105 4 2 2 2 206 207 204 307
1106 4 2 2 2 233 230 187 310
1107 4 2 2 2 208 71 309 314
1108 4 2 2 2 231 237 310 314
1109 4 2 2 2 75 76 210 309
1110 4 2 2 2 181 67 189 307
1111 4 2 2 2 11 202 71 314
1112 4 2 2 2 215 217 223 307
1113 4 2 2 2 172 170 174 315
1114 4 2 2 2 213 224 221 311
1115 4 2 2 2 223 74 307 309
1116 4 2 2 2 206 73 307 313
1117 4 2 2 2 229 240 239 311
1118 4 2 2 2 235 232 236 311
1119 4 2 2 2 229 219 240 311
1120 4 2 2 2 231 241 202 310
1121 4 2 2 2 209 70 7 201
1122 4 2 2 2 215 223 74 307
1123 4 2 2 2 222 220 308 312
1124 4 2 2 2 200 67 66 307
1125 4 2 2 2 241 52 231 202
1126 4 2 2 2 172 308 170 315
1127 4 2 2 2 74 207 206 307
1128 4 2 2 2 165 312 306 315
1129 4 2 2 2 200 198 199 307
1130 4 2 2 2 73 74 206 307
1131 4 2 2 2 168 27 220 176
1132 4 2 2 2 71 208 11 314
1133 4 2 2 2 58 182 59 313
1134 4 2 2 2 229 219 311 314
1135 4 2 2 2 73 72 222 312
1136 4 2 2 2 182 191 59 313
1137 4 2 2 2 238 11 208 314
1138 4 2 2 2 213 76 309 314
1139 4 2 2 2 220 8 168 166
1140 4 2 2 2 228 73 222 313
1141 4 2 2 2 69 305 68 310
1142 4 2 2 2 202 198 71 199
1143 4 2 2 2 164 226 176 308
1144 4 2 2 2 170 308 169 312
1145 4 2 2 2 202 197 199 310
1146 4 2 2 2 213 214 224 309
1147 4 2 2 2 239 229 311 314
1148 4 2 2 2 200 199 67 307
1149 4 2 2 2 63 305 185 311
1150 4 2 2 2 236 232 194 311
1151 4 2 2 2 178 308 173 315
1152 4 2 2 2 235 311 305 314
1153 4 2 2 2 206 209 203 312
1154 4 2 2 2 305 310 237 314
1155 4 2 2 2 75 213 76 309
1156 4 2 2 2 64 63 185 311
1157 4 2 2 2 75 207 74 309
1158 4 2 2 2 172 173 164 308
1159 4 2 2 2 191 60 59 313
1160 4 2 2 2 170 308 312 315
1161 4 2 2 2 185 63 190 305
1162 4 2 2 2 75 223 213 309
1163 4 2 2 2 58 59 216 313
1164 4 2 2 2 240 12 219 229
1165 4 2 2 2 167 175 186 315
1166 4 2 2 2 208 71 204 309
1167 4 2 2 2 208 309 210 314
1168 4 2 2 2 185 179 192 305
1169 4 2 2 2 228 222 216 313
1170 4 2 2 2 229 76 219 314
1171 4 2 2 2 169 172 164 308
1172 4 2 2 2 188 65 66 306
1173 4 2 2 2 68 69 179 305
1174 4 2 2 2 208 204 207 309
1175 4 2 2 2 196 201 200 306
1176 4 2 2 2 173 308 172 315
1177 4 2 2 2 193 173 178 308
1178 4 2 2 2 185 190 179 305
1179 4 2 2 2 220 212 222 308
1180 4 2 2 2 193 164 173 308
1181 4 2 2 2 238 237 231 314
1182 4 2 2 2 65 196 306 315
1183 4 2 2 2 228 215 73 313
1184 4 2 2 2 187 50 177 230
1185 4 2 2 2 59 60 225 313
1186 4 2 2 2 64 221 63 311
1187 4 2 2 2 184 308 178 315
1188 4 2 2 2 239 232 235 311
1189 4 2 2 2 223 214 213 309
1190 4 2 2 2 166 170 169 312
1191 4 2 2 2 171 165 170 312
1192 4 2 2 2 233 234 230 310
1193 4 2 2 2 231 234 241 310
1194 4 2 2 2 241 197 202 310
1195 4 2 2 2 198 204 70 71
1196 4 2 2 2 229 205 76 314
1197 4 2 2 2 186 167 6 175
1198 4 2 2 2 233 10 187 230
1199 4 2 2 2 201 196 24 165
1200 4 2 2 2 188 65 306 315
1201 4 2 2 2 75 74 223 309
1202 4 2 2 2 202 241 52 197
1203 4 2 2 2 179 69 192 305
1204 4 2 2 2 176 226 212 308
1205 4 2 2 2 53 238 11 208
1206 4 2 2 2 230 50 177 236
1207 4 2 2 2 76 219 12 229
1208 4 2 2 2 222 72 220 312
1209 4 2 2 2 208 210 205 314
1210 4 2 2 2 167 178 173 315
1211 4 2 2 2 57 184 58 308
1212 4 2 2 2 192 305 69 310
1213 4 2 2 2 65 175 196 315
1214 4 2 2 2 196 175 24 165
1215 4 2 2 2 228 225 215 313
1216 4 2 2 2 166 220 72 312
1217 4 2 2 2 212 218 222 308
1218 4 2 2 2 207 210 208 309
1219 4 2 2 2 233 187 69 310
1220 4 2 2 2 233 241 234 310
1221 4 2 2 2 201 24 7 165
1222 4 2 2 2 174 175 167 315
1223 4 2 2 2 167 172 174 315
1224 4 2 2 2 187 192 69 310
1225 4 2 2 2 167 22 173 178
1226 4 2 2 2 218 57 58 308
1227 4 2 2 2 239 237 229 314
1228 4 2 2 2 167 173 172 315
1229 4 2 2 2 207 75 210 309
1230 4 2 2 2 184 178 188 315
1231 4 2 2 2 205 76 54 229
1232 4 2 2 2 229 238 205 314
1233 4 2 2 2 203 209 171 312
1234 4 2 2 2 166 26 171 312
1235 4 2 2 2 219 213 221 311
1236 4 2 2 2 211 232 240 311
1237 4 2 2 2 212 220 27 176
1238 4 2 2 2 205 238 208 314
1239 4 2 2 2 7 25 209 171
1240 4 2 2 2 26 166 72 312
1241 4 2 2 2 167 186 178 315
1242 4 2 2 2 187 69 10 233
1243 4 2 2 2 240 232 239 311
1244 4 2 2 2 186 175 65 315
1245 4 2 2 2 188 178 186 315
1246 4 2 2 2 205 210 76 314
1247 4 2 2 2 306 312 308 315
1248 4 2 2 2 216 225 228 313
1249 4 2 2 2 8 220 72 166
1250 4 2 2 2 54 76 12 229
1251 4 2 2 2 208 53 238 205
1252 4 2 2 2 22 167 186 178
1253 4 2 2 2 216 59 225 313
1254 4 2 2 2 227 232 211 311
1255 4 2 2 2 209 25 203 171
1256 4 2 2 2 56 240 211 232
1257 4 2 2 2 219 211 240 311
1258 4 2 2 2 65 186 6 175
1259 4 2 2 2 51 233 69 310
1260 4 2 2 2 51 241 233 310
1261 4 2 2 2 218 226 57 308
1262 4 2 2 2 11 231 52 202
1263 4 2 2 2 227 211 221 311
1264 4 2 2 2 219 12 240 55
1265 4 2 2 2 205 54 238 229
1266 4 2 2 2 72 26 8 166
1267 4 2 2 2 166 171 170 312
1268 4 2 2 2 218 212 226 308
1269 4 2 2 2 164 28 176 226
1270 4 2 2 2 69 51 10 233
1271 4 2 2 2 203 171 26 312
1272 4 2 2 2 175 23 65 196
1273 4 2 2 2 203 26 72 312
1274 4 2 2 2 212 27 28 176
1275 4 2 2 2 229 237 238 314
1276 4 2 2 2 211 227 56 232
1277 4 2 2 2 64 227 221 311
1278 4 2 2 2 6 23 65 175
1279 4 2 2 2 194 236 9 232
1280 4 2 2 2 173 22 21 178
1281 4 2 2 2 49 177 50 236
1282 4 2 2 2 28 212 176 226
1283 4 2 2 2 188 186 65 315
1284 4 2 2 2 211 219 221 311
1285 4 2 2 2 8 27 220 168
1286 4 2 2 2 240 211 219 55
1287 4 2 2 2 193 164 5 173
1288 4 2 2 2 10 50 187 230
1289 4 2 2 2 55 240 211 56
1290 4 2 2 2 236 49 177 194
1291 4 2 2 2 197 51 69 310
1292 4 2 2 2 21 193 173 178
1293 4 2 2 2 51 197 241 310
1294 4 2 2 2 24 23 175 196
1295 4 2 2 2 203 25 26 171
1296 4 2 2 2 167 6 22 186
1297 4 2 2 2 197 241 52 51
1298 4 2 2 2 54 238 53 205
1299 4 2 2 2 56 227 9 232
1300 4 2 2 2 236 9 49 194
1301 4 2 2 2 5 21 193 173
1302 4 2 2 2 164 5 28 226
1303 4 2 2 2 177 310 192 187
1304 4 2 2 2 192 310 177 305
1305 4 2 2 2 209 307 204 70
1306 4 2 2 2 204 307 209 206
1307 4 2 2 2 189 179 309 68
1308 4 2 2 2 309 179 189 180
1309 4 2 2 2 306 209 201 70
1310 4 2 2 2 306 201 209 312
1311 4 2 2 2 311 224 63 305
1312 4 2 2 2 311 63 224 221
1313 4 2 2 2 310 235 237 234
1314 4 2 2 2 310 237 235 305
1315 4 2 2 2 313 217 60 225
1316 4 2 2 2 313 60 217 307
1317 4 2 2 2 314 235 239 237
1318 4 2 2 2 314 239 235 311
1319 4 2 2 2 176 220 308 212
1320 4 2 2 2 176 308 220 168
1321 4 2 2 2 185 194 311 177
1322 4 2 2 2 185 311 194 64
1323 4 2 2 2 314 219 213 76
1324 4 2 2 2 314 213 219 311
1325 4 2 2 2 69 199 310 68
1326 4 2 2 2 69 310 199 197
1327 4 2 2 2 200 65 306 66
1328 4 2 2 2 306 65 200 196
1329 4 2 2 2 72 206 312 73
1330 4 2 2 2 312 206 72 203
1331 4 2 2 2 184 193 308 57
1332 4 2 2 2 184 308 193 178
1333 4 2 2 2 5 57 164 193
1334 4 2 2 2 5 164 57 226
1335 4 2 2 2 308 164 57 193
1336 4 2 2 2 308 57 164 226
1337 4 2 2 2 311 64 232 194
1338 4 2 2 2 311 232 64 227
1339 4 2 2 2 9 232 64 194
1340 4 2 2 2 9 64 232 227
1341 4 2 3 3 107 108 98 316
1342 4 2 3 3 290 294 317 318
1343 4 2 3 3 259 256 317 318
1344 4 2 3 3 86 259 317 318
1345 4 2 3 3 234 230 235 320
1346 4 2 3 3 93 317 294 318
1347 4 2 3 3 81 318 82 324
1348 4 2 3 3 79 290 317 318
1349 4 2 3 3 251 319 230 320
1350 4 2 3 3 79 317 256 318
1351 4 2 3 3 269 90 317 318
1352 4 2 3 3 254 318 88 324
1353 4 2 3 3 279 81 82 324
1354 4 2 3 3 108 316 107 322
1355 4 2 3 3 294 281 290 317
1356 4 2 3 3 245 316 82 324
1357 4 2 3 3 81 245 82 318
1358 4 2 3 3 247 259 256 317
1359 4 2 3 3 245 82 318 324
1360 4 2 3 3 230 319 235 320
1361 4 2 3 3 290 280 294 318
1362 4 2 3 3 280 93 294 318
1363 4 2 3 3 86 246 259 318
1364 4 2 3 3 245 255 82 316
1365 4 2 3 3 261 98 108 316
1366 4 2 3 3 107 103 102 325
1367 4 2 3 3 233 251 230 320
1368 4 2 3 3 279 318 81 324
1369 4 2 3 3 259 246 256 318
1370 4 2 3 3 251 253 319 320
1371 4 2 3 3 79 80 290 318
1372 4 2 3 3 263 317 90 318
1373 4 2 3 3 245 318 254 324
1374 4 2 3 3 281 79 290 317
1375 4 2 3 3 79 256 80 318
1376 4 2 3 3 98 316 266 325
1377 4 2 3 3 230 236 235 319
1378 4 2 3 3 98 103 107 325
1379 4 2 3 3 317 319 253 320
1380 4 2 3 3 269 90 271 317
1381 4 2 3 3 264 88 318 324
1382 4 2 3 3 79 247 256 317
1383 4 2 3 3 264 316 88 324
1384 4 2 3 3 86 317 263 318
1385 4 2 3 3 261 316 108 322
1386 4 2 3 3 230 234 233 320
1387 4 2 3 3 266 98 261 316
1388 4 2 3 3 243 230 251 319
1389 4 2 3 3 82 316 289 324
1390 4 2 3 3 235 237 234 320
1391 4 2 3 3 267 263 317 320
1392 4 2 3 3 244 255 245 316
1393 4 2 3 3 269 317 271 318
1394 4 2 3 3 91 266 316 325
1395 4 2 3 3 86 253 267 317
1396 4 2 3 3 267 263 86 317
1397 4 2 3 3 263 90 262 318
1398 4 2 3 3 98 107 316 325
1399 4 2 3 3 316 324 91 325
1400 4 2 3 3 91 98 266 325
1401 4 2 3 3 264 266 316 324
1402 4 2 3 3 279 82 289 324
1403 4 2 3 3 91 316 266 324
1404 4 2 3 3 243 251 253 319
1405 4 2 3 3 262 318 91 324
1406 4 2 3 3 86 259 253 317
1407 4 2 3 3 271 317 93 318
1408 4 2 3 3 230 243 236 319
1409 4 2 3 3 259 247 253 317
1410 4 2 3 3 79 78 247 317
1411 4 2 3 3 79 281 78 317
1412 4 2 3 3 262 91 264 324
1413 4 2 3 3 107 102 104 322
1414 4 2 3 3 294 287 281 317
1415 4 2 3 3 253 317 249 319
1416 4 2 3 3 294 93 287 317
1417 4 2 3 3 264 91 266 324
1418 4 2 3 3 235 319 237 320
1419 4 2 3 3 78 317 281 319
1420 4 2 3 3 262 269 91 318
1421 4 2 3 3 264 266 261 316
1422 4 2 3 3 229 239 240 323
1423 4 2 3 3 262 264 318 324
1424 4 2 3 3 281 317 287 319
1425 4 2 3 3 282 81 279 318
1426 4 2 3 3 317 320 274 323
1427 4 2 3 3 91 318 269 324
1428 4 2 3 3 78 249 317 319
1429 4 2 3 3 269 262 90 318
1430 4 2 3 3 94 93 280 318
1431 4 2 3 3 251 85 253 320
1432 4 2 3 3 239 319 240 323
1433 4 2 3 3 88 254 87 318
1434 4 2 3 3 82 255 83 316
1435 4 2 3 3 82 83 289 316
1436 4 2 3 3 245 81 248 318
1437 4 2 3 3 91 4 98 325
1438 4 2 3 3 274 271 90 317
1439 4 2 3 3 287 319 317 323
1440 4 2 3 3 249 247 78 317
1441 4 2 3 3 253 247 249 317
1442 4 2 3 3 282 290 80 318
1443 4 2 3 3 86 87 246 318
1444 4 2 3 3 90 274 317 320
1445 4 2 3 3 88 87 264 318
1446 4 2 3 3 235 239 237 319
1447 4 2 3 3 86 263 87 318
1448 4 2 3 3 87 263 262 318
1449 4 2 3 3 282 280 290 318
1450 4 2 3 3 279 288 318 324
1451 4 2 3 3 261 108 89 322
1452 4 2 3 3 243 253 249 319
1453 4 2 3 3 262 266 264 91
1454 4 2 3 3 80 256 248 318
1455 4 2 3 3 93 317 271 323
1456 4 2 3 3 231 274 320 323
1457 4 2 3 3 288 282 279 318
1458 4 2 3 3 98 4 105 325
1459 4 2 3 3 101 99 286 321
1460 4 2 3 3 271 317 274 323
1461 4 2 3 3 272 269 318 324
1462 4 2 3 3 233 85 251 320
1463 4 2 3 3 92 317 93 323
1464 4 2 3 3 282 80 81 318
1465 4 2 3 3 231 238 274 323
1466 4 2 3 3 4 266 91 98
1467 4 2 3 3 261 89 316 322
1468 4 2 3 3 287 317 92 323
1469 4 2 3 3 286 321 99 325
1470 4 2 3 3 80 248 81 318
1471 4 2 3 3 291 316 321 325
1472 4 2 3 3 283 78 281 319
1473 4 2 3 3 256 246 248 318
1474 4 2 3 3 241 233 234 320
1475 4 2 3 3 237 320 319 323
1476 4 2 3 3 283 281 287 319
1477 4 2 3 3 289 316 278 324
1478 4 2 3 3 279 289 278 324
1479 4 2 3 3 241 260 233 320
1480 4 2 3 3 100 108 107 322
1481 4 2 3 3 273 91 324 325
1482 4 2 3 3 282 288 280 318
1483 4 2 3 3 264 87 262 318
1484 4 2 3 3 94 271 93 318
1485 4 2 3 3 272 269 271 318
1486 4 2 3 3 52 241 231 320
1487 4 2 3 3 245 248 254 318
1488 4 2 3 3 83 84 321 322
1489 4 2 3 3 83 321 316 322
1490 4 2 3 3 272 318 94 324
1491 4 2 3 3 239 237 319 323
1492 4 2 3 3 285 240 319 323
1493 4 2 3 3 285 229 240 323
1494 4 2 3 3 263 264 87 262
1495 4 2 3 3 102 321 104 322
1496 4 2 3 3 96 324 316 325
1497 4 2 3 3 280 288 94 318
1498 4 2 3 3 244 88 89 316
1499 4 2 3 3 287 93 92 317
1500 4 2 3 3 96 275 324 325
1501 4 2 3 3 255 252 83 316
1502 4 2 3 3 268 271 274 323
1503 4 2 3 3 291 96 316 325
1504 4 2 3 3 94 272 271 318
1505 4 2 3 3 86 253 85 267
1506 4 2 3 3 288 94 318 324
1507 4 2 3 3 291 316 284 321
1508 4 2 3 3 104 97 106 322
1509 4 2 3 3 96 275 95 324
1510 4 2 3 3 265 231 274 320
1511 4 2 3 3 246 254 248 318
1512 4 2 3 3 278 291 96 316
1513 4 2 3 3 231 320 237 323
1514 4 2 3 3 240 239 232 319
1515 4 2 3 3 260 263 267 320
1516 4 2 3 3 91 273 4 325
1517 4 2 3 3 246 87 254 318
1518 4 2 3 3 273 105 4 325
1519 4 2 3 3 96 278 316 324
1520 4 2 3 3 284 291 278 316
1521 4 2 3 3 83 252 84 322
1522 4 2 3 3 271 274 90 269
1523 4 2 3 3 89 108 100 322
1524 4 2 3 3 236 232 235 319
1525 4 2 3 3 83 316 252 322
1526 4 2 3 3 103 99 102 325
1527 4 2 3 3 231 237 238 323
1528 4 2 3 3 284 289 83 316
1529 4 2 3 3 104 321 97 322
1530 4 2 3 3 244 252 255 316
1531 4 2 3 3 252 316 244 322
1532 4 2 3 3 263 90 265 262
1533 4 2 3 3 90 265 274 320
1534 4 2 3 3 96 95 278 324
1535 4 2 3 3 286 99 96 325
1536 4 2 3 3 102 99 101 321
1537 4 2 3 3 231 234 237 320
1538 4 2 3 3 233 260 85 320
1539 4 2 3 3 284 316 83 321
1540 4 2 3 3 89 244 316 322
1541 4 2 3 3 284 278 289 316
1542 4 2 3 3 99 321 102 325
1543 4 2 3 3 278 288 279 324
1544 4 2 3 3 98 16 261 108
1545 4 2 3 3 285 319 92 323
1546 4 2 3 3 287 285 277 319
1547 4 2 3 3 239 235 232 319
1548 4 2 3 3 243 257 236 319
1549 4 2 3 3 257 232 236 319
1550 4 2 3 3 16 261 266 98
1551 4 2 3 3 284 83 84 321
1552 4 2 3 3 97 321 258 322
1553 4 2 3 3 95 288 278 324
1554 4 2 3 3 287 92 319 323
1555 4 2 3 3 277 285 240 319
1556 4 2 3 3 106 97 258 322
1557 4 2 3 3 240 232 277 319
1558 4 2 3 3 273 91 269 324
1559 4 2 3 3 98 105 103 325
1560 4 2 3 3 265 263 260 320
1561 4 2 3 3 100 107 104 322
1562 4 2 3 3 262 269 90 91
1563 4 2 3 3 100 89 2 108
1564 4 2 3 3 97 101 276 321
1565 4 2 3 3 3 96 286 99
1566 4 2 3 3 101 276 20 97
1567 4 2 3 3 241 260 51 233
1568 4 2 3 3 241 52 260 320
1569 4 2 3 3 319 320 317 323
1570 4 2 3 3 287 92 285 319
1571 4 2 3 3 97 104 102 321
1572 4 2 3 3 239 229 237 323
1573 4 2 3 3 272 273 269 324
1574 4 2 3 3 95 272 94 324
1575 4 2 3 3 265 231 11 274
1576 4 2 3 3 238 11 231 274
1577 4 2 3 3 233 251 10 230
1578 4 2 3 3 100 250 89 322
1579 4 2 3 3 287 277 283 319
1580 4 2 3 3 276 286 291 321
1581 4 2 3 3 241 234 231 320
1582 4 2 3 3 276 101 286 321
1583 4 2 3 3 273 17 4 105
1584 4 2 3 3 275 273 324 325
1585 4 2 3 3 77 249 78 319
1586 4 2 3 3 101 3 286 99
1587 4 2 3 3 243 50 230 236
1588 4 2 3 3 95 94 288 324
1589 4 2 3 3 266 4 16 98
1590 4 2 3 3 265 52 231 320
1591 4 2 3 3 292 277 232 319
1592 4 2 3 3 54 229 92 323
1593 4 2 3 3 229 285 92 323
1594 4 2 3 3 230 251 50 243
1595 4 2 3 3 293 97 276 321
1596 4 2 3 3 77 78 283 319
1597 4 2 3 3 85 51 260 233
1598 4 2 3 3 18 96 99 325
1599 4 2 3 3 56 277 240 232
1600 4 2 3 3 276 293 20 97
1601 4 2 3 3 84 258 321 322
1602 4 2 3 3 2 250 89 100
1603 4 2 3 3 85 251 10 233
1604 4 2 3 3 100 106 242 322
1605 4 2 3 3 106 242 14 100
1606 4 2 3 3 96 3 18 99
1607 4 2 3 3 260 267 85 320
1608 4 2 3 3 268 274 238 323
1609 4 2 3 3 250 252 244 322
1610 4 2 3 3 10 51 85 233
1611 4 2 3 3 250 14 242 100
1612 4 2 3 3 272 275 273 324
1613 4 2 3 3 100 242 250 322
1614 4 2 3 3 286 276 19 101
1615 4 2 3 3 275 270 273 325
1616 4 2 3 3 97 102 101 321
1617 4 2 3 3 100 104 106 322
1618 4 2 3 3 89 250 244 322
1619 4 2 3 3 284 293 276 321
1620 4 2 3 3 258 252 242 322
1621 4 2 3 3 276 20 19 101
1622 4 2 3 3 277 56 292 232
1623 4 2 3 3 229 238 237 323
1624 4 2 3 3 54 92 268 323
1625 4 2 3 3 273 270 17 105
1626 4 2 3 3 270 105 273 325
1627 4 2 3 3 12 229 285 92
1628 4 2 3 3 15 89 261 108
1629 4 2 3 3 291 284 276 321
1630 4 2 3 3 18 270 96 325
1631 4 2 3 3 229 12 54 92
1632 4 2 3 3 275 272 95 324
1633 4 2 3 3 2 14 250 100
1634 4 2 3 3 89 15 2 108
1635 4 2 3 3 242 106 258 322
1636 4 2 3 3 105 18 99 325
1637 4 2 3 3 265 260 52 320
1638 4 2 3 3 258 84 252 322
1639 4 2 3 3 105 99 103 325
1640 4 2 3 3 270 275 96 325
1641 4 2 3 3 252 250 242 322
1642 4 2 3 3 284 84 293 321
1643 4 2 3 3 240 55 277 56
1644 4 2 3 3 53 274 238 268
1645 4 2 3 3 229 240 12 285
1646 4 2 3 3 50 243 49 236
1647 4 2 3 3 236 257 9 232
1648 4 2 3 3 251 50 10 230
1649 4 2 3 3 14 13 242 106
1650 4 2 3 3 19 3 286 101
1651 4 2 3 3 52 231 11 265
1652 4 2 3 3 274 238 11 53
1653 4 2 3 3 105 270 18 325
1654 4 2 3 3 106 1 258 97
1655 4 2 3 3 243 257 49 236
1656 4 2 3 3 240 55 285 277
1657 4 2 3 3 16 15 261 108
1658 4 2 3 3 54 53 238 268
1659 4 2 3 3 260 52 241 51
1660 4 2 3 3 258 242 13 106
1661 4 2 3 3 292 56 9 232
1662 4 2 3 3 18 17 270 105
1663 4 2 3 3 11 265 274 90
1664 4 2 3 3 1 20 293 97
1665 4 2 3 3 49 257 9 236
1666 4 2 3 3 55 12 240 285
1667 4 2 3 3 258 13 1 106
1668 4 2 3 3 320 90 263 317
1669 4 2 3 3 320 263 90 265
1670 4 2 3 3 320 253 267 85
1671 4 2 3 3 320 267 253 317
1672 4 2 3 3 322 102 316 107
1673 4 2 3 3 322 316 102 321
1674 4 2 3 3 325 316 102 107
1675 4 2 3 3 325 102 316 321
1676 4 2 3 3 325 291 286 321
1677 4 2 3 3 325 286 291 96
1678 4 2 3 3 244 254 316 245
1679 4 2 3 3 244 316 254 88
1680 4 2 3 3 324 316 254 245
1681 4 2 3 3 324 254 316 88
1682 4 2 3 3 323 54 238 268
1683 4 2 3 3 323 238 54 229
1684 4 2 3 3 89 264 316 88
1685 4 2 3 3 89 316 264 261
1686 4 2 3 3 92 271 323 93
1687 4 2 3 3 323 271 92 268
1688 4 2 3 3 292 283 319 77
1689 4 2 3 3 292 319 283 277
1690 4 2 3 3 257 249 319 243
1691 4 2 3 3 319 249 257 77
1692 4 2 3 3 9 77 232 257
1693 4 2 3 3 9 232 77 292
1694 4 2 3 3 319 232 77 257
1695 4 2 3 3 319 77 232 292
1696 4 2 3 3 1 84 97 293
1697 4 2 3 3 1 97 84 258
1698 4 2 3 3 321 97 84 293
1699 4 2 3 3 321 84 97 258
$EndElements
